…
``` r
tables
```

    ## $`1A_R2.sam`
    ## # A tibble: 234,364 × 19
    ##    X1       X2 X3       X4    X5 X6    X7       X8    X9 X10   X11   X12   X13  
    ##    <chr> <dbl> <chr> <dbl> <dbl> <chr> <chr> <dbl> <dbl> <chr> <chr> <chr> <chr>
    ##  1 M008…    16 olig…    20    44 43M   *         0     0 GCGG… GGHH… AS:i… XN:i…
    ##  2 M008…    16 olig…    20    44 43M   *         0     0 TTGC… GGGG… AS:i… XN:i…
    ##  3 M008…    16 olig…    20    42 41M2S *         0     0 TCCT… 11FB… AS:i… XN:i…
    ##  4 M008…    16 olig…    20    44 43M   *         0     0 TGTT… HHHH… AS:i… XN:i…
    ##  5 M008…    16 olig…    20    44 43M   *         0     0 TCTC… GGGG… AS:i… XN:i…
    ##  6 M008…    16 olig…    20    44 43M   *         0     0 GTAT… HHHH… AS:i… XN:i…
    ##  7 M008…    16 olig…    20    44 43M   *         0     0 TTGC… GGGG… AS:i… XN:i…
    ##  8 M008…    16 olig…    20    44 43M   *         0     0 TCCT… GEHH… AS:i… XN:i…
    ##  9 M008…    16 olig…    20    44 43M   *         0     0 GTCT… GGFH… AS:i… XN:i…
    ## 10 M008…    16 olig…    20    44 43M   *         0     0 TGGG… GGHH… AS:i… XN:i…
    ## # ℹ 234,354 more rows
    ## # ℹ 6 more variables: X14 <chr>, X15 <chr>, X16 <chr>, X17 <chr>, X18 <chr>,
    ## #   X19 <chr>
    ## 
    ## $`1B_R2.sam`
    ## # A tibble: 197,209 × 19
    ##    X1       X2 X3       X4    X5 X6    X7       X8    X9 X10   X11   X12   X13  
    ##    <chr> <dbl> <chr> <dbl> <dbl> <chr> <chr> <dbl> <dbl> <chr> <chr> <chr> <chr>
    ##  1 M008…    16 olig…    20    44 43M   *         0     0 ACCT… EGHH… AS:i… XN:i…
    ##  2 M008…    16 olig…    20    44 43M   *         0     0 CCCT… GEHB… AS:i… XN:i…
    ##  3 M008…    16 olig…    20    44 43M   *         0     0 GCGG… F13@… AS:i… XN:i…
    ##  4 M008…    16 olig…    20    44 43M   *         0     0 TCCT… HHHH… AS:i… XN:i…
    ##  5 M008…    16 olig…    20    44 43M   *         0     0 CCTT… GHGH… AS:i… XN:i…
    ##  6 M008…    16 olig…    20    44 43M   *         0     0 CACA… EGGF… AS:i… XN:i…
    ##  7 M008…    16 olig…    20    44 43M   *         0     0 CGCA… GHHG… AS:i… XN:i…
    ##  8 M008…    16 olig…    20    44 43M   *         0     0 ATAA… HHHH… AS:i… XN:i…
    ##  9 M008…    16 olig…    20    44 43M   *         0     0 CGCA… GHHH… AS:i… XN:i…
    ## 10 M008…    16 olig…    20    44 43M   *         0     0 GCTT… A2EF… AS:i… XN:i…
    ## # ℹ 197,199 more rows
    ## # ℹ 6 more variables: X14 <chr>, X15 <chr>, X16 <chr>, X17 <chr>, X18 <chr>,
    ## #   X19 <chr>
    ## 
    ## $`2A_R2.sam`
    ## # A tibble: 222,828 × 19
    ##    X1       X2 X3       X4    X5 X6    X7       X8    X9 X10   X11   X12   X13  
    ##    <chr> <dbl> <chr> <dbl> <dbl> <chr> <chr> <dbl> <dbl> <chr> <chr> <chr> <chr>
    ##  1 M008…    16 olig…    20    44 43M   *         0     0 CCCT… GHHG… AS:i… XN:i…
    ##  2 M008…    16 olig…    20    44 43M1S *         0     0 CATC… 5HHH… AS:i… XN:i…
    ##  3 M008…    16 olig…    20    44 43M   *         0     0 TTGC… HFGF… AS:i… XN:i…
    ##  4 M008…    16 olig…    20    44 43M   *         0     0 ACCT… HHHH… AS:i… XN:i…
    ##  5 M008…    16 olig…    20    44 43M   *         0     0 GAGG… HHHH… AS:i… XN:i…
    ##  6 M008…    16 olig…    20    44 43M   *         0     0 CCTT… GHHH… AS:i… XN:i…
    ##  7 M008…    16 olig…    20    44 43M   *         0     0 AAAT… HHHH… AS:i… XN:i…
    ##  8 M008…    16 olig…    20    44 43M   *         0     0 GCCC… GHHH… AS:i… XN:i…
    ##  9 M008…    16 olig…    20    44 43M   *         0     0 GGTG… GGHH… AS:i… XN:i…
    ## 10 M008…     4 *         0     0 *     *         0     0 CACA… 5D45… YT:Z… <NA> 
    ## # ℹ 222,818 more rows
    ## # ℹ 6 more variables: X14 <chr>, X15 <chr>, X16 <chr>, X17 <chr>, X18 <chr>,
    ## #   X19 <chr>
    ## 
    ## $`2B_R2.sam`
    ## # A tibble: 156,033 × 19
    ##    X1       X2 X3       X4    X5 X6    X7       X8    X9 X10   X11   X12   X13  
    ##    <chr> <dbl> <chr> <dbl> <dbl> <chr> <chr> <dbl> <dbl> <chr> <chr> <chr> <chr>
    ##  1 M008…    16 olig…    23    41 3S36… *         0     0 CCTT… B255… AS:i… XN:i…
    ##  2 M008…    16 olig…    20    44 43M   *         0     0 TCCT… FFHH… AS:i… XN:i…
    ##  3 M008…    16 olig…    20    44 43M   *         0     0 CCTT… GHHH… AS:i… XN:i…
    ##  4 M008…    16 olig…    21    44 42M   *         0     0 CCCT… GHHH… AS:i… XN:i…
    ##  5 M008…    16 olig…    20    44 43M   *         0     0 ATCC… GGGH… AS:i… XN:i…
    ##  6 M008…    16 olig…    20    44 43M   *         0     0 CCGC… GGHH… AS:i… XN:i…
    ##  7 M008…    16 olig…    20    44 43M   *         0     0 CTGC… GGGG… AS:i… XN:i…
    ##  8 M008…    16 olig…    20    44 43M   *         0     0 TCGC… GGHH… AS:i… XN:i…
    ##  9 M008…    16 olig…    20    44 43M   *         0     0 GACA… HHHH… AS:i… XN:i…
    ## 10 M008…    16 olig…    20    44 43M   *         0     0 GTCT… HHHH… AS:i… XN:i…
    ## # ℹ 156,023 more rows
    ## # ℹ 6 more variables: X14 <chr>, X15 <chr>, X16 <chr>, X17 <chr>, X18 <chr>,
    ## #   X19 <chr>
    ## 
    ## $`3A_R2.sam`
    ## # A tibble: 194,255 × 19
    ##    X1       X2 X3       X4    X5 X6    X7       X8    X9 X10   X11   X12   X13  
    ##    <chr> <dbl> <chr> <dbl> <dbl> <chr> <chr> <dbl> <dbl> <chr> <chr> <chr> <chr>
    ##  1 M008…    16 olig…    20    44 43M   *         0     0 TCTC… GGEF… AS:i… XN:i…
    ##  2 M008…    16 olig…    20    44 43M   *         0     0 ATGC… GGGG… AS:i… XN:i…
    ##  3 M008…    16 olig…    20    44 43M   *         0     0 GTCT… HGHH… AS:i… XN:i…
    ##  4 M008…    16 olig…    20    44 43M   *         0     0 GTCT… HHGH… AS:i… XN:i…
    ##  5 M008…    16 olig…    20    44 43M   *         0     0 GGCT… HHHH… AS:i… XN:i…
    ##  6 M008…    16 olig…    20    44 43M   *         0     0 TGCA… GHHG… AS:i… XN:i…
    ##  7 M008…    16 olig…    20    44 43M   *         0     0 CTTC… HHHH… AS:i… XN:i…
    ##  8 M008…    16 olig…    20    44 43M   *         0     0 GTAA… 12FF… AS:i… XN:i…
    ##  9 M008…    16 olig…    20    44 43M   *         0     0 GGGC… GHHH… AS:i… XN:i…
    ## 10 M008…    16 olig…    20    11 42M1S *         0     0 CCTT… A333… AS:i… XS:i…
    ## # ℹ 194,245 more rows
    ## # ℹ 6 more variables: X14 <chr>, X15 <chr>, X16 <chr>, X17 <chr>, X18 <chr>,
    ## #   X19 <chr>
    ## 
    ## $`3B_R2.sam`
    ## # A tibble: 194,868 × 19
    ##    X1       X2 X3       X4    X5 X6    X7       X8    X9 X10   X11   X12   X13  
    ##    <chr> <dbl> <chr> <dbl> <dbl> <chr> <chr> <dbl> <dbl> <chr> <chr> <chr> <chr>
    ##  1 M008…    16 olig…    20    44 43M   *         0     0 CCCT… ?13G… AS:i… XN:i…
    ##  2 M008…    16 olig…    20    44 43M   *         0     0 TTGC… GGHH… AS:i… XN:i…
    ##  3 M008…    16 olig…    20    44 43M   *         0     0 CCCT… ?E5G… AS:i… XN:i…
    ##  4 M008…    16 olig…    20    44 43M   *         0     0 TTGC… FGGG… AS:i… XN:i…
    ##  5 M008…    16 olig…    20    44 43M   *         0     0 GGAA… HHHH… AS:i… XN:i…
    ##  6 M008…    16 olig…    20    44 43M   *         0     0 CACA… ADGB… AS:i… XN:i…
    ##  7 M008…    16 olig…    20    44 43M   *         0     0 ACCA… EE3A… AS:i… XN:i…
    ##  8 M008…    16 olig…    20    44 43M   *         0     0 TGCT… HHHH… AS:i… XN:i…
    ##  9 M008…    16 olig…    20    44 43M   *         0     0 CCTT… EHHH… AS:i… XN:i…
    ## 10 M008…    16 olig…    20    44 43M   *         0     0 TGCA… HHHH… AS:i… XN:i…
    ## # ℹ 194,858 more rows
    ## # ℹ 6 more variables: X14 <chr>, X15 <chr>, X16 <chr>, X17 <chr>, X18 <chr>,
    ## #   X19 <chr>
    ## 
    ## $`4A_R2.sam`
    ## # A tibble: 200,544 × 19
    ##    X1       X2 X3       X4    X5 X6    X7       X8    X9 X10   X11   X12   X13  
    ##    <chr> <dbl> <chr> <dbl> <dbl> <chr> <chr> <dbl> <dbl> <chr> <chr> <chr> <chr>
    ##  1 M008…    16 olig…    20    44 43M   *         0     0 TCCC… HGHG… AS:i… XN:i…
    ##  2 M008…    16 olig…    20    44 43M   *         0     0 ATCC… GGGH… AS:i… XN:i…
    ##  3 M008…    16 olig…    20    44 43M   *         0     0 TACG… HGGH… AS:i… XN:i…
    ##  4 M008…    16 olig…    20    44 43M   *         0     0 CGAA… HHHH… AS:i… XN:i…
    ##  5 M008…     4 *         0     0 *     *         0     0 GCAG… 54AE… YT:Z… <NA> 
    ##  6 M008…    16 olig…    20    44 43M   *         0     0 GGAT… HHHH… AS:i… XN:i…
    ##  7 M008…    16 olig…    20    44 43M   *         0     0 TCCT… HHHH… AS:i… XN:i…
    ##  8 M008…    16 olig…    20    44 43M   *         0     0 TCGG… GGGH… AS:i… XN:i…
    ##  9 M008…    16 olig…    20    44 43M   *         0     0 GTGT… E1FG… AS:i… XN:i…
    ## 10 M008…    16 olig…    20    44 43M   *         0     0 TCCC… GGGG… AS:i… XN:i…
    ## # ℹ 200,534 more rows
    ## # ℹ 6 more variables: X14 <chr>, X15 <chr>, X16 <chr>, X17 <chr>, X18 <chr>,
    ## #   X19 <chr>
    ## 
    ## $`4B_R2.sam`
    ## # A tibble: 174,056 × 20
    ##    X1       X2 X3       X4    X5 X6    X7       X8    X9 X10   X11   X12   X13  
    ##    <chr> <dbl> <chr> <dbl> <dbl> <chr> <chr> <dbl> <dbl> <chr> <chr> <chr> <chr>
    ##  1 M008…    16 olig…    20    14 43M   *         0     0 GGCT… B23D… AS:i… XS:i…
    ##  2 M008…    16 olig…    20    44 43M   *         0     0 CGCG… GGGG… AS:i… XN:i…
    ##  3 M008…    16 olig…    20    44 43M   *         0     0 TTTT… HHHH… AS:i… XN:i…
    ##  4 M008…    16 olig…    25    42 5S38M *         0     0 CCTT… ?HHD… AS:i… XN:i…
    ##  5 M008…    16 olig…    20    44 43M   *         0     0 TGGT… HHHG… AS:i… XN:i…
    ##  6 M008…    16 olig…    20    44 43M   *         0     0 TCCA… HHHH… AS:i… XN:i…
    ##  7 M008…    16 olig…    20    44 43M   *         0     0 TGTT… HHHH… AS:i… XN:i…
    ##  8 M008…     4 *         0     0 *     *         0     0 GATT… HHHH… YT:Z… <NA> 
    ##  9 M008…    16 olig…    20    44 43M   *         0     0 CCTT… HHHH… AS:i… XN:i…
    ## 10 M008…    16 olig…    20    44 43M   *         0     0 CAGT… FGDF… AS:i… XN:i…
    ## # ℹ 174,046 more rows
    ## # ℹ 7 more variables: X14 <chr>, X15 <chr>, X16 <chr>, X17 <chr>, X18 <chr>,
    ## #   X19 <chr>, X20 <chr>
    ## 
    ## $`5A_R2.sam`
    ## # A tibble: 49,765 × 19
    ##    X1       X2 X3       X4    X5 X6    X7       X8    X9 X10   X11   X12   X13  
    ##    <chr> <dbl> <chr> <dbl> <dbl> <chr> <chr> <dbl> <dbl> <chr> <chr> <chr> <chr>
    ##  1 M008…    16 olig…    20    44 43M   *         0     0 ACTT… HHHH… AS:i… XN:i…
    ##  2 M008…    16 olig…    20    42 38M5S *         0     0 TTGC… GGHH… AS:i… XN:i…
    ##  3 M008…    16 olig…    25    42 5S38M *         0     0 GCCC… AHHF… AS:i… XN:i…
    ##  4 M008…    16 olig…    20    44 43M   *         0     0 AGGT… HHGH… AS:i… XN:i…
    ##  5 M008…    16 olig…    20    44 43M   *         0     0 TACT… GGHH… AS:i… XN:i…
    ##  6 M008…    16 olig…    20    44 43M   *         0     0 CATC… HHHH… AS:i… XN:i…
    ##  7 M008…     4 *         0     0 *     *         0     0 CAAA… HHHH… YT:Z… <NA> 
    ##  8 M008…    16 olig…    20    44 43M   *         0     0 CTGC… HHHH… AS:i… XN:i…
    ##  9 M008…    16 olig…    20    44 43M   *         0     0 TCCC… GGGG… AS:i… XN:i…
    ## 10 M008…    16 olig…    20    44 43M   *         0     0 ATCA… HHHH… AS:i… XN:i…
    ## # ℹ 49,755 more rows
    ## # ℹ 6 more variables: X14 <chr>, X15 <chr>, X16 <chr>, X17 <chr>, X18 <chr>,
    ## #   X19 <chr>
    ## 
    ## $`5B_R2.sam`
    ## # A tibble: 197,927 × 19
    ##    X1       X2 X3       X4    X5 X6    X7       X8    X9 X10   X11   X12   X13  
    ##    <chr> <dbl> <chr> <dbl> <dbl> <chr> <chr> <dbl> <dbl> <chr> <chr> <chr> <chr>
    ##  1 M008…    16 olig…    20    44 43M   *         0     0 GATC… HHHH… AS:i… XN:i…
    ##  2 M008…    16 olig…    20    44 43M   *         0     0 CGCA… GHHH… AS:i… XN:i…
    ##  3 M008…    16 olig…    20    44 43M   *         0     0 TTTT… HFGH… AS:i… XN:i…
    ##  4 M008…    16 olig…    20    44 43M   *         0     0 CCTT… GHHH… AS:i… XN:i…
    ##  5 M008…    16 olig…    20    44 43M   *         0     0 ATCC… HHHH… AS:i… XN:i…
    ##  6 M008…    16 olig…    20    44 43M   *         0     0 GAAA… HHHH… AS:i… XN:i…
    ##  7 M008…    16 olig…    20    44 43M   *         0     0 TCCA… HHHH… AS:i… XN:i…
    ##  8 M008…    16 olig…    20    44 43M   *         0     0 ACGC… GGHH… AS:i… XN:i…
    ##  9 M008…    16 olig…    20    44 43M   *         0     0 TTGC… EGHF… AS:i… XN:i…
    ## 10 M008…    16 olig…    20    44 43M   *         0     0 GAAA… HHHH… AS:i… XN:i…
    ## # ℹ 197,917 more rows
    ## # ℹ 6 more variables: X14 <chr>, X15 <chr>, X16 <chr>, X17 <chr>, X18 <chr>,
    ## #   X19 <chr>
    ## 
    ## $`6A_R2.sam`
    ## # A tibble: 132,098 × 19
    ##    X1       X2 X3       X4    X5 X6    X7       X8    X9 X10   X11   X12   X13  
    ##    <chr> <dbl> <chr> <dbl> <dbl> <chr> <chr> <dbl> <dbl> <chr> <chr> <chr> <chr>
    ##  1 M008…    16 olig…    20    44 43M   *         0     0 GACA… HHHH… AS:i… XN:i…
    ##  2 M008…    16 olig…    20    44 43M   *         0     0 CGCA… EBHF… AS:i… XN:i…
    ##  3 M008…    16 olig…    20    44 43M   *         0     0 CGCA… GHHH… AS:i… XN:i…
    ##  4 M008…    16 olig…    20    44 43M   *         0     0 GCTG… HHHF… AS:i… XN:i…
    ##  5 M008…    16 olig…    20    44 43M   *         0     0 TAAT… HHHH… AS:i… XN:i…
    ##  6 M008…    16 olig…    20    44 43M   *         0     0 ACCT… 1EBE… AS:i… XN:i…
    ##  7 M008…    16 olig…    20    44 43M   *         0     0 CCCT… GHHH… AS:i… XN:i…
    ##  8 M008…    16 olig…    20    44 43M   *         0     0 CTCT… GFAG… AS:i… XN:i…
    ##  9 M008…    16 olig…    26    41 6S37M *         0     0 TAGG… EHGD… AS:i… XN:i…
    ## 10 M008…    16 olig…    26    41 6S37M *         0     0 TAGG… HHHG… AS:i… XN:i…
    ## # ℹ 132,088 more rows
    ## # ℹ 6 more variables: X14 <chr>, X15 <chr>, X16 <chr>, X17 <chr>, X18 <chr>,
    ## #   X19 <chr>
    ## 
    ## $`6B_R2.sam`
    ## # A tibble: 158,772 × 19
    ##    X1       X2 X3       X4    X5 X6    X7       X8    X9 X10   X11   X12   X13  
    ##    <chr> <dbl> <chr> <dbl> <dbl> <chr> <chr> <dbl> <dbl> <chr> <chr> <chr> <chr>
    ##  1 M008…    16 olig…    20    44 41M2S *         0     0 TCCC… 31HF… AS:i… XN:i…
    ##  2 M008…    16 olig…    20    44 43M   *         0     0 TCCC… HHHH… AS:i… XN:i…
    ##  3 M008…    16 olig…    20    44 43M   *         0     0 GCCT… HHHH… AS:i… XN:i…
    ##  4 M008…    16 olig…    20    44 43M   *         0     0 CCTT… GHHH… AS:i… XN:i…
    ##  5 M008…    16 olig…    20    44 43M   *         0     0 CCGC… GGHH… AS:i… XN:i…
    ##  6 M008…    16 olig…    20    14 43M   *         0     0 CCTT… 1255… AS:i… XS:i…
    ##  7 M008…    16 olig…    20    44 43M   *         0     0 GTGA… HHHH… AS:i… XN:i…
    ##  8 M008…    16 olig…    20    42 43M   *         0     0 GATC… //>/… AS:i… XN:i…
    ##  9 M008…    16 olig…    20    44 43M   *         0     0 CTGC… >//>… AS:i… XN:i…
    ## 10 M008…    16 olig…    20    44 43M   *         0     0 ACGA… GGHH… AS:i… XN:i…
    ## # ℹ 158,762 more rows
    ## # ℹ 6 more variables: X14 <chr>, X15 <chr>, X16 <chr>, X17 <chr>, X18 <chr>,
    ## #   X19 <chr>
    ## 
    ## $`7A_R2.sam`
    ## # A tibble: 171,923 × 19
    ##    X1       X2 X3       X4    X5 X6    X7       X8    X9 X10   X11   X12   X13  
    ##    <chr> <dbl> <chr> <dbl> <dbl> <chr> <chr> <dbl> <dbl> <chr> <chr> <chr> <chr>
    ##  1 M008…    16 olig…    20    44 43M   *         0     0 CTCT… BGHH… AS:i… XN:i…
    ##  2 M008…    16 olig…    20    44 43M   *         0     0 CGCG… GGGH… AS:i… XN:i…
    ##  3 M008…    16 olig…    20    44 43M   *         0     0 CGCG… FFEB… AS:i… XN:i…
    ##  4 M008…    16 olig…    20    44 43M   *         0     0 CGCG… EGEH… AS:i… XN:i…
    ##  5 M008…    16 olig…    20    44 43M   *         0     0 TCCT… GHGH… AS:i… XN:i…
    ##  6 M008…    16 olig…    20    44 43M   *         0     0 TTTG… HHHH… AS:i… XN:i…
    ##  7 M008…    16 olig…    20    44 43M   *         0     0 TCCT… E?FG… AS:i… XN:i…
    ##  8 M008…    16 olig…    20    44 43M   *         0     0 TCCC… HGHH… AS:i… XN:i…
    ##  9 M008…    16 olig…    20    44 43M   *         0     0 GCCC… GHHH… AS:i… XN:i…
    ## 10 M008…    16 olig…    20    44 43M   *         0     0 TTTC… HHHH… AS:i… XN:i…
    ## # ℹ 171,913 more rows
    ## # ℹ 6 more variables: X14 <chr>, X15 <chr>, X16 <chr>, X17 <chr>, X18 <chr>,
    ## #   X19 <chr>
    ## 
    ## $`7B_R2.sam`
    ## # A tibble: 166,673 × 19
    ##    X1       X2 X3       X4    X5 X6    X7       X8    X9 X10   X11   X12   X13  
    ##    <chr> <dbl> <chr> <dbl> <dbl> <chr> <chr> <dbl> <dbl> <chr> <chr> <chr> <chr>
    ##  1 M008…    16 olig…    20    44 43M   *         0     0 CCGC… GGHH… AS:i… XN:i…
    ##  2 M008…    16 olig…    20    44 43M   *         0     0 AAAT… HHGF… AS:i… XN:i…
    ##  3 M008…    16 olig…    20    44 43M   *         0     0 ATTT… HFHG… AS:i… XN:i…
    ##  4 M008…    16 olig…    20    44 43M   *         0     0 TCGC… GGGB… AS:i… XN:i…
    ##  5 M008…    16 olig…    20    44 43M   *         0     0 GGCC… GGGH… AS:i… XN:i…
    ##  6 M008…    16 olig…    20    44 43M   *         0     0 GGCT… HHHH… AS:i… XN:i…
    ##  7 M008…    16 olig…    20    44 42M2S *         0     0 TTTT… FHHH… AS:i… XN:i…
    ##  8 M008…    16 olig…    21    44 1S42M *         0     0 AGCC… 111B… AS:i… XN:i…
    ##  9 M008…    16 olig…    20    44 43M   *         0     0 TTGC… GGGG… AS:i… XN:i…
    ## 10 M008…    16 olig…    20    44 43M   *         0     0 ACTT… GHHG… AS:i… XN:i…
    ## # ℹ 166,663 more rows
    ## # ℹ 6 more variables: X14 <chr>, X15 <chr>, X16 <chr>, X17 <chr>, X18 <chr>,
    ## #   X19 <chr>
…
``` r
tables
```

    ## $filtered_1A_R2.sam
    ## # A tibble: 209,961 × 19
    ##    X1       X2 X3       X4    X5 X6    X7       X8    X9 X10   X11   X12   X13  
    ##    <chr> <dbl> <chr> <dbl> <dbl> <chr> <chr> <dbl> <dbl> <chr> <chr> <chr> <chr>
    ##  1 M008…    16 olig…    20    44 43M   *         0     0 GCGG… GGHH… AS:i… XN:i…
    ##  2 M008…    16 olig…    20    44 43M   *         0     0 TTGC… GGGG… AS:i… XN:i…
    ##  3 M008…    16 olig…    20    44 43M   *         0     0 TGTT… HHHH… AS:i… XN:i…
    ##  4 M008…    16 olig…    20    44 43M   *         0     0 TCTC… GGGG… AS:i… XN:i…
    ##  5 M008…    16 olig…    20    44 43M   *         0     0 GTAT… HHHH… AS:i… XN:i…
    ##  6 M008…    16 olig…    20    44 43M   *         0     0 TTGC… GGGG… AS:i… XN:i…
    ##  7 M008…    16 olig…    20    44 43M   *         0     0 TCCT… GEHH… AS:i… XN:i…
    ##  8 M008…    16 olig…    20    44 43M   *         0     0 GTCT… GGFH… AS:i… XN:i…
    ##  9 M008…    16 olig…    20    44 43M   *         0     0 TGGG… GGHH… AS:i… XN:i…
    ## 10 M008…    16 olig…    20    44 43M   *         0     0 GACA… HHHH… AS:i… XN:i…
    ## # ℹ 209,951 more rows
    ## # ℹ 6 more variables: X14 <chr>, X15 <chr>, X16 <chr>, X17 <chr>, X18 <chr>,
    ## #   X19 <chr>
    ## 
    ## $filtered_1B_R2.sam
…
