…
# HEK

``` r
aligned <- read_tsv("./Output/RE_013_HEK_normalized.tsv")

aligned
```

    ## # A tibble: 467 × 10
    ##    Motif     HEK.GFP.A HEK.GFP.B HEK.Top.A HEK.Top.B HEK.Bot.A HEK.Bot.B avg.top
    ##    <chr>         <dbl>     <dbl>     <dbl>     <dbl>     <dbl>     <dbl>   <dbl>
    ##  1 oligo_00…     2.47       3.23     0.647     0.568     1.30     2.37     0.608
    ##  2 oligo_00…    14.3       16.7      6.02      7.32     31.2     33.7      6.67 
    ##  3 oligo_00…     0.808      1.42     0.348     0.711     0.113    0.0550   0.530
    ##  4 oligo_00…     1.85       1.87     1.29      1.07      1.69     0.0550   1.18 
    ##  5 oligo_00…    66.7       65.5     67.1      55.6      68.3     75.8     61.4  
    ##  6 oligo_00…     1.24       1.13     0.647     1.07      1.02     0.165    0.857
    ##  7 oligo_00…     4.66       4.70     8.96     13.7       1.30    15.5     11.3  
    ##  8 oligo_00…    26.8       32.2     39.6      41.7      37.9     31.8     40.6  
    ##  9 oligo_00…    48.8       58.8     52.3      48.5      59.7     51.0     50.4  
    ## 10 oligo_01…    36.3       33.2     26.0      29.4      37.3     32.5     27.7  
    ## # ℹ 457 more rows
    ## # ℹ 2 more variables: avg.bot <dbl>, avg.gfp <dbl>
…
Run function for all motifs.

``` r
wilcox.seqs <- map_dfr(x, get_stats)

wilcox.seqs
```

    ## # A tibble: 1,762 × 9
    ##    .y.          group1 group2    n1    n2 statistic      p seq   log2topVSbot
    ##    <chr>        <chr>  <chr>  <int> <int>     <dbl>  <dbl> <chr>        <dbl>
    ##  1 log2topVSbot no     yes      430    37      9424 0.0623 AAA        -1.59  
    ##  2 log2topVSbot no     yes      430    37      9424 0.0623 AAA         0.525 
    ##  3 log2topVSbot no     yes      430    37      9424 0.0623 AAA        -1.65  
    ##  4 log2topVSbot no     yes      430    37      9424 0.0623 AAA        -1.05  
    ##  5 log2topVSbot no     yes      430    37      9424 0.0623 AAA        -1.00  
    ##  6 log2topVSbot no     yes      430    37      9424 0.0623 AAA        -0.141 
    ##  7 log2topVSbot no     yes      430    37      9424 0.0623 AAA        -1.14  
    ##  8 log2topVSbot no     yes      430    37      9424 0.0623 AAA         0.0246
    ##  9 log2topVSbot no     yes      430    37      9424 0.0623 AAA        -0.802 
    ## 10 log2topVSbot no     yes      430    37      9424 0.0623 AAA        -0.415 
    ## # ℹ 1,752 more rows
…
x 
```

    ##  [1] "AA" "GA" "TA" "CA" "AG" "GG" "TG" "CG" "AT" "GT" "TT" "CT" "AC" "GC" "TC"
    ## [16] "CC"

Run get_stats function for all motifs.

``` r
wilcox.seqs <- map_dfr(x, get_stats)

wilcox.seqs
```

    ## # A tibble: 1,892 × 9
    ##    .y.          group1 group2    n1    n2 statistic      p seq   log2topVSbot
    ##    <chr>        <chr>  <chr>  <int> <int>     <dbl>  <dbl> <chr>        <dbl>
    ##  1 log2topVSbot no     yes      354   113     23550 0.0045 AA          -1.59 
    ##  2 log2topVSbot no     yes      354   113     23550 0.0045 AA           0.525
    ##  3 log2topVSbot no     yes      354   113     23550 0.0045 AA          -1.65 
    ##  4 log2topVSbot no     yes      354   113     23550 0.0045 AA          -1.05 
    ##  5 log2topVSbot no     yes      354   113     23550 0.0045 AA          -1.00 
    ##  6 log2topVSbot no     yes      354   113     23550 0.0045 AA          -0.667
    ##  7 log2topVSbot no     yes      354   113     23550 0.0045 AA          -0.141
    ##  8 log2topVSbot no     yes      354   113     23550 0.0045 AA           0.925
    ##  9 log2topVSbot no     yes      354   113     23550 0.0045 AA          -1.14 
    ## 10 log2topVSbot no     yes      354   113     23550 0.0045 AA          -0.265
    ## # ℹ 1,882 more rows
…
<img src="3-motif_analysis_files/figure-gfm/unnamed-chunk-15-2.png" style="display: block; margin: auto;" />

``` r
ggsave("./Figs/Violin_content_A_G_HEK.pdf", height = 4, width = 10, scale = 1.2)
```

# HeLa

``` r
aligned <- read_tsv("./Output/RE_013_HeLa_normalized.tsv")

aligned
```

    ## # A tibble: 459 × 13
    ##    Motif HeLa.LoMi.A HeLa.LoMi.B HeLa.LoLo.A HeLa.LoLo.B HeLa.HiMi.A HeLa.HiMi.B
    ##    <chr>       <dbl>       <dbl>       <dbl>       <dbl>       <dbl>       <dbl>
    ##  1 olig…      0.0539        3.75       0.216      0.0554      3.15         3.46 
    ##  2 olig…      0.324         7.50      20.8       12.8         0.0828       4.30 
    ##  3 olig…      0.108         3.75       4.97       8.92        1.24         1.52 
    ##  4 olig…      8.58          3.75       0.216      2.16        0.0828       3.39 
    ##  5 olig…     44.2          37.5       68.8       61.6        85.4        101.   
    ##  6 olig…      0.0539        3.75       0.216      0.0554      4.39         0.970
    ##  7 olig…      0.162         3.75      13.6       13.5         3.56         5.06 
    ##  8 olig…     22.4          22.5       26.6       28.4        25.9         23.1  
    ##  9 olig…     69.0          63.8       83.9       66.1        86.6         62.1  
    ## 10 olig…    127.            3.75      36.1       35.1        33.0         26.9  
    ## # ℹ 449 more rows
    ## # ℹ 6 more variables: HeLa.HiHi.A <dbl>, HeLa.HiHi.B <dbl>, LoMi <dbl>,
    ## #   LoLo <dbl>, HiMi <dbl>, HiHi <dbl>
…
Run function for all motifs.

``` r
wilcox.seqs <- map_dfr(x, get_stats)

wilcox.seqs
```

    ## # A tibble: 1,733 × 9
    ##    .y.          group1 group2    n1    n2 statistic     p seq   log2topVSbot
    ##    <chr>        <chr>  <chr>  <int> <int>     <dbl> <dbl> <chr>        <dbl>
    ##  1 log2topVSbot no     yes      424    35     6480. 0.213 AAA          5.23 
    ##  2 log2topVSbot no     yes      424    35     6480. 0.213 AAA         -7.81 
    ##  3 log2topVSbot no     yes      424    35     6480. 0.213 AAA         -0.129
    ##  4 log2topVSbot no     yes      424    35     6480. 0.213 AAA         -4.07 
    ##  5 log2topVSbot no     yes      424    35     6480. 0.213 AAA          2.63 
    ##  6 log2topVSbot no     yes      424    35     6480. 0.213 AAA         -7.44 
    ##  7 log2topVSbot no     yes      424    35     6480. 0.213 AAA          2.50 
    ##  8 log2topVSbot no     yes      424    35     6480. 0.213 AAA          3.19 
    ##  9 log2topVSbot no     yes      424    35     6480. 0.213 AAA          1.30 
    ## 10 log2topVSbot no     yes      424    35     6480. 0.213 AAA          6.89 
    ## # ℹ 1,723 more rows
…
x 
```

    ##  [1] "AA" "GA" "TA" "CA" "AG" "GG" "TG" "CG" "AT" "GT" "TT" "CT" "AC" "GC" "TC"
    ## [16] "CC"

Run get_stats function for all motifs.

``` r
wilcox.seqs <- map_dfr(x, get_stats)

wilcox.seqs
```

    ## # A tibble: 1,865 × 9
    ##    .y.          group1 group2    n1    n2 statistic     p seq   log2topVSbot
    ##    <chr>        <chr>  <chr>  <int> <int>     <dbl> <dbl> <chr>        <dbl>
    ##  1 log2topVSbot no     yes      352   107     18472 0.765 AA           5.23 
    ##  2 log2topVSbot no     yes      352   107     18472 0.765 AA          -7.81 
    ##  3 log2topVSbot no     yes      352   107     18472 0.765 AA          -0.129
    ##  4 log2topVSbot no     yes      352   107     18472 0.765 AA          -4.07 
    ##  5 log2topVSbot no     yes      352   107     18472 0.765 AA          -0.119
    ##  6 log2topVSbot no     yes      352   107     18472 0.765 AA           2.63 
    ##  7 log2topVSbot no     yes      352   107     18472 0.765 AA          -0.747
    ##  8 log2topVSbot no     yes      352   107     18472 0.765 AA          -7.44 
    ##  9 log2topVSbot no     yes      352   107     18472 0.765 AA           0.771
    ## 10 log2topVSbot no     yes      352   107     18472 0.765 AA           2.50 
    ## # ℹ 1,855 more rows
…
